
<proxy>45.33.23.135:10146</proxy>
<proxy>45.33.23.135:10147</proxy>
<proxy>45.33.23.135:10148</proxy>
<proxy>45.33.23.135:10149</proxy>
<proxy>45.33.23.135:10150</proxy>
<proxy>45.33.23.135:10151</proxy>
<proxy>45.33.23.135:10152</proxy>
<proxy>45.33.23.135:10153</proxy>
<proxy>45.33.23.135:10154</proxy>
<proxy>45.33.23.135:10155</proxy>
<proxy>45.33.23.135:10156</proxy>
<proxy>45.33.23.135:10157</proxy>
<proxy>45.33.23.135:10158</proxy>
<proxy>45.33.23.135:10159</proxy>
<proxy>45.33.23.135:10160</proxy>
<proxy>45.33.23.135:10161</proxy>
<proxy>45.33.23.135:10162</proxy>
<proxy>45.33.23.135:10163</proxy>
<proxy>45.33.23.135:10164</proxy>
<proxy>45.33.23.135:10165</proxy>
<proxy>45.33.23.135:10166</proxy>
<proxy>45.33.23.135:10167</proxy>
<proxy>45.33.23.135:10168</proxy>
<proxy>45.33.23.135:10169</proxy>
<proxy>45.33.23.135:10170</proxy>
<proxy>45.33.23.135:10171</proxy>
<proxy>45.33.23.135:10172</proxy>
<proxy>45.33.23.135:10173</proxy>
<proxy>45.33.23.135:10174</proxy>
<proxy>45.33.23.135:10175</proxy>
<proxy>45.33.23.135:10176</proxy>
<proxy>45.33.23.135:10177</proxy>
<proxy>45.33.23.135:10178</proxy>
<proxy>45.33.23.135:10179</proxy>
<proxy>45.33.23.135:10180</proxy>
<proxy>45.33.23.135:10181</proxy>
<proxy>45.33.23.135:10182</proxy>
<proxy>45.33.23.135:10183</proxy>
<proxy>45.33.23.135:10184</proxy>
<proxy>45.33.23.135:10185</proxy>
<proxy>45.33.23.135:10186</proxy>
<proxy>45.33.23.135:10187</proxy>
<proxy>45.33.23.135:10188</proxy>
<proxy>45.33.23.135:10189</proxy>
<proxy>45.33.23.135:10190</proxy>
<proxy>45.33.23.135:10191</proxy>
<proxy>45.33.23.135:10192</proxy>
<proxy>45.33.23.135:10193</proxy>
<proxy>45.33.23.135:10194</proxy>
<proxy>45.33.23.135:10195</proxy>
<proxy>45.33.23.135:10196</proxy>
<proxy>45.33.23.135:10197</proxy>
<proxy>45.33.23.135:10198</proxy>
<proxy>45.33.23.135:10199</proxy>
<proxy>45.33.23.135:10200</proxy>
<proxy>45.33.23.135:10201</proxy>
<proxy>45.33.23.135:10202</proxy>
<proxy>45.33.23.135:10203</proxy>
<proxy>45.33.23.135:10204</proxy>
<proxy>45.33.23.135:10205</proxy>
<proxy>45.33.23.135:10206</proxy>
<proxy>45.33.23.135:10207</proxy>
<proxy>45.33.23.135:10208</proxy>
<proxy>45.33.23.135:10209</proxy>
<proxy>45.33.23.135:10210</proxy>
<proxy>45.33.23.135:10211</proxy>
<proxy>45.33.23.135:10212</proxy>
<proxy>45.33.23.135:10213</proxy>
<proxy>45.33.23.135:10214</proxy>
<proxy>45.33.23.135:10215</proxy>
<proxy>45.33.23.135:10216</proxy>
<proxy>45.33.23.135:10217</proxy>
<proxy>45.33.23.135:10218</proxy>
<proxy>45.33.23.135:10219</proxy>
<proxy>45.33.23.135:10220</proxy>
<proxy>45.33.23.135:10221</proxy>
<proxy>45.33.23.135:10222</proxy>
<proxy>45.33.23.135:10223</proxy>
<proxy>45.33.23.135:10224</proxy>
<proxy>45.33.23.135:10225</proxy>
<proxy>45.33.23.135:10226</proxy>
<proxy>45.33.23.135:10227</proxy>
<proxy>45.33.23.135:10228</proxy>
<proxy>45.33.23.135:10229</proxy>
<proxy>45.33.23.135:10230</proxy>
<proxy>45.33.23.135:10231</proxy>
<proxy>45.33.23.135:10232</proxy>
<proxy>45.33.23.135:10233</proxy>
<proxy>45.33.23.135:10234</proxy>
<proxy>45.33.23.135:10235</proxy>
<proxy>45.33.23.135:10236</proxy>
<proxy>45.33.23.135:10237</proxy>
<proxy>45.33.23.135:10238</proxy>
<proxy>45.33.23.135:10239</proxy>
<proxy>45.33.23.135:10240</proxy>
<proxy>45.33.23.135:10241</proxy>
<proxy>45.33.23.135:10242</proxy>
<proxy>45.33.23.135:10243</proxy>
<proxy>45.33.23.135:10244</proxy>
<proxy>45.33.23.135:10245</proxy>
<proxy>45.33.23.135:10246</proxy>
<proxy>45.33.23.135:10247</proxy>
<proxy>45.33.23.135:10248</proxy>
<proxy>45.33.23.135:10249</proxy>
<proxy>45.33.23.135:10250</proxy>
<proxy>45.33.23.135:10251</proxy>
<proxy>45.33.23.135:10252</proxy>
<proxy>45.33.23.135:10253</proxy>
<proxy>45.33.23.135:10254</proxy>
<proxy>45.33.23.135:10255</proxy>
<proxy>45.33.121.111:10001</proxy>
<proxy>45.33.121.111:10002</proxy>
<proxy>45.33.121.111:10003</proxy>
<proxy>45.33.121.111:10004</proxy>
<proxy>45.33.121.111:10005</proxy>
<proxy>45.33.121.111:10006</proxy>
<proxy>45.33.121.111:10007</proxy>
<proxy>45.33.121.111:10008</proxy>
<proxy>45.33.121.111:10009</proxy>
<proxy>45.33.121.111:10010</proxy>
<proxy>45.33.121.111:10011</proxy>
<proxy>45.33.121.111:10012</proxy>
<proxy>45.33.121.111:10013</proxy>
<proxy>45.33.121.111:10014</proxy>
<proxy>45.33.121.111:10015</proxy>
<proxy>45.33.121.111:10016</proxy>
<proxy>45.33.121.111:10017</proxy>
<proxy>45.33.121.111:10018</proxy>
<proxy>45.33.121.111:10019</proxy>
<proxy>45.33.121.111:10020</proxy>
<proxy>45.33.121.111:10021</proxy>
<proxy>45.33.121.111:10022</proxy>
<proxy>45.33.121.111:10023</proxy>
<proxy>45.33.121.111:10024</proxy>
<proxy>45.33.121.111:10025</proxy>
<proxy>45.33.121.111:10026</proxy>
<proxy>45.33.121.111:10027</proxy>
<proxy>45.33.121.111:10028</proxy>
<proxy>45.33.121.111:10029</proxy>
<proxy>45.33.121.111:10030</proxy>
<proxy>45.33.121.111:10031</proxy>
<proxy>45.33.121.111:10032</proxy>
<proxy>45.33.121.111:10033</proxy>
<proxy>45.33.121.111:10034</proxy>
<proxy>45.33.121.111:10035</proxy>
<proxy>45.33.121.111:10036</proxy>
<proxy>45.33.121.111:10037</proxy>
<proxy>45.33.121.111:10038</proxy>
<proxy>45.33.121.111:10039</proxy>
<proxy>45.33.121.111:10040</proxy>
<proxy>45.33.121.111:10041</proxy>
<proxy>45.33.121.111:10042</proxy>
<proxy>45.33.121.111:10043</proxy>
<proxy>45.33.121.111:10044</proxy>
<proxy>45.33.121.111:10045</proxy>
<proxy>45.33.121.111:10046</proxy>
<proxy>45.33.121.111:10047</proxy>
<proxy>45.33.121.111:10048</proxy>
<proxy>45.33.121.111:10049</proxy>
<proxy>45.33.121.111:10050</proxy>
<proxy>45.33.121.111:10051</proxy>
<proxy>45.33.121.111:10052</proxy>
<proxy>45.33.121.111:10053</proxy>
<proxy>45.33.121.111:10054</proxy>
<proxy>45.33.121.111:10055</proxy>
<proxy>45.33.121.111:10056</proxy>
<proxy>45.33.121.111:10057</proxy>
<proxy>45.33.121.111:10058</proxy>
<proxy>45.33.121.111:10059</proxy>
<proxy>45.33.121.111:10060</proxy>
<proxy>45.33.121.111:10061</proxy>
<proxy>45.33.121.111:10062</proxy>
<proxy>45.33.121.111:10063</proxy>
<proxy>45.33.121.111:10064</proxy>
<proxy>45.33.121.111:10065</proxy>
<proxy>45.33.121.111:10066</proxy>
<proxy>45.33.121.111:10067</proxy>
<proxy>45.33.121.111:10068</proxy>
<proxy>45.33.121.111:10069</proxy>
<proxy>45.33.121.111:10070</proxy>
<proxy>45.33.121.111:10071</proxy>
<proxy>45.33.121.111:10072</proxy>
<proxy>45.33.121.111:10073</proxy>
<proxy>45.33.121.111:10074</proxy>
<proxy>45.33.121.111:10075</proxy>
<proxy>45.33.121.111:10076</proxy>
<proxy>45.33.121.111:10077</proxy>
<proxy>45.33.121.111:10078</proxy>
<proxy>45.33.121.111:10079</proxy>
<proxy>45.33.121.111:10080</proxy>
<proxy>45.33.121.111:10081</proxy>
<proxy>45.33.121.111:10082</proxy>
<proxy>45.33.121.111:10083</proxy>
<proxy>45.33.121.111:10084</proxy>
<proxy>45.33.121.111:10085</proxy>
<proxy>45.33.121.111:10086</proxy>
<proxy>45.33.121.111:10087</proxy>
<proxy>45.33.121.111:10088</proxy>
<proxy>45.33.121.111:10089</proxy>
<proxy>45.33.121.111:10090</proxy>
<proxy>45.33.121.111:10091</proxy>
<proxy>45.33.121.111:10092</proxy>
<proxy>45.33.121.111:10093</proxy>
<proxy>45.33.121.111:10094</proxy>
<proxy>45.33.121.111:10095</proxy>
<proxy>45.33.121.111:10096</proxy>
<proxy>45.33.121.111:10097</proxy>
<proxy>45.33.121.111:10098</proxy>
<proxy>45.33.121.111:10099</proxy>
<proxy>45.33.121.111:10100</proxy>
<proxy>45.33.121.111:10101</proxy>
<proxy>45.33.121.111:10102</proxy>
<proxy>45.33.121.111:10103</proxy>
<proxy>45.33.121.111:10104</proxy>
<proxy>45.33.121.111:10105</proxy>
<proxy>45.33.121.111:10106</proxy>
<proxy>45.33.121.111:10107</proxy>
<proxy>45.33.121.111:10108</proxy>
<proxy>45.33.121.111:10109</proxy>
<proxy>45.33.121.111:10110</proxy>
<proxy>45.33.121.111:10111</proxy>
<proxy>45.33.121.111:10112</proxy>
<proxy>45.33.121.111:10113</proxy>
<proxy>45.33.121.111:10114</proxy>
<proxy>45.33.121.111:10115</proxy>
<proxy>45.33.121.111:10116</proxy>
<proxy>45.33.121.111:10117</proxy>
<proxy>45.33.121.111:10118</proxy>
<proxy>45.33.121.111:10119</proxy>
<proxy>45.33.121.111:10120</proxy>
<proxy>45.33.121.111:10121</proxy>
<proxy>45.33.121.111:10122</proxy>
<proxy>45.33.121.111:10123</proxy>
<proxy>45.33.121.111:10124</proxy>
<proxy>45.33.121.111:10125</proxy>
<proxy>45.33.121.111:10126</proxy>
<proxy>45.33.121.111:10127</proxy>
<proxy>45.33.121.111:10128</proxy>
<proxy>45.33.121.111:10129</proxy>
<proxy>45.33.121.111:10130</proxy>
<proxy>45.33.121.111:10131</proxy>
<proxy>45.33.121.111:10132</proxy>
<proxy>45.33.121.111:10133</proxy>
<proxy>45.33.121.111:10134</proxy>
<proxy>45.33.121.111:10135</proxy>
<proxy>45.33.121.111:10136</proxy>
<proxy>45.33.121.111:10137</proxy>
<proxy>45.33.121.111:10138</proxy>
<proxy>45.33.121.111:10139</proxy>
<proxy>45.33.121.111:10140</proxy>
<proxy>45.33.121.111:10141</proxy>
<proxy>45.33.121.111:10142</proxy>
<proxy>45.33.121.111:10143</proxy>
<proxy>45.33.121.111:10144</proxy>
<proxy>45.33.121.111:10145</proxy>
<proxy>45.33.121.111:10146</proxy>
<proxy>45.33.121.111:10147</proxy>
<proxy>45.33.121.111:10148</proxy>
<proxy>45.33.121.111:10149</proxy>
<proxy>45.33.121.111:10150</proxy>
<proxy>45.33.121.111:10151</proxy>
<proxy>45.33.121.111:10152</proxy>
<proxy>45.33.121.111:10153</proxy>
<proxy>45.33.121.111:10154</proxy>
<proxy>45.33.121.111:10155</proxy>
<proxy>45.33.121.111:10156</proxy>
<proxy>45.33.121.111:10157</proxy>
<proxy>45.33.121.111:10158</proxy>
<proxy>45.33.121.111:10159</proxy>
<proxy>45.33.121.111:10160</proxy>
<proxy>45.33.121.111:10161</proxy>
<proxy>45.33.121.111:10162</proxy>
<proxy>45.33.121.111:10163</proxy>
<proxy>45.33.121.111:10164</proxy>
<proxy>45.33.121.111:10165</proxy>
<proxy>45.33.121.111:10166</proxy>
<proxy>45.33.121.111:10167</proxy>
<proxy>45.33.121.111:10168</proxy>
<proxy>45.33.121.111:10169</proxy>
<proxy>45.33.121.111:10170</proxy>
<proxy>45.33.121.111:10171</proxy>
<proxy>45.33.121.111:10172</proxy>
<proxy>45.33.121.111:10173</proxy>
<proxy>45.33.121.111:10174</proxy>
<proxy>45.33.121.111:10175</proxy>
<proxy>45.33.121.111:10176</proxy>
<proxy>45.33.121.111:10177</proxy>
<proxy>45.33.121.111:10178</proxy>
<proxy>45.33.121.111:10179</proxy>
<proxy>45.33.121.111:10180</proxy>
<proxy>45.33.121.111:10181</proxy>
<proxy>45.33.121.111:10182</proxy>
<proxy>45.33.121.111:10183</proxy>
<proxy>45.33.121.111:10184</proxy>
<proxy>45.33.121.111:10185</proxy>
<proxy>45.33.121.111:10186</proxy>
<proxy>45.33.121.111:10187</proxy>
<proxy>45.33.121.111:10188</proxy>
<proxy>45.33.121.111:10189</proxy>
<proxy>45.33.121.111:10190</proxy>
<proxy>45.33.121.111:10191</proxy>
<proxy>45.33.121.111:10192</proxy>
<proxy>45.33.121.111:10193</proxy>
<proxy>45.33.121.111:10194</proxy>
<proxy>45.33.121.111:10195</proxy>
<proxy>45.33.121.111:10196</proxy>
<proxy>45.33.121.111:10197</proxy>
<proxy>45.33.121.111:10198</proxy>
<proxy>45.33.121.111:10199</proxy>
<proxy>45.33.121.111:10200</proxy>
<proxy>45.33.121.111:10201</proxy>
<proxy>45.33.121.111:10202</proxy>
<proxy>45.33.121.111:10203</proxy>
<proxy>45.33.121.111:10204</proxy>
<proxy>45.33.121.111:10205</proxy>
<proxy>45.33.121.111:10206</proxy>
<proxy>45.33.121.111:10207</proxy>
<proxy>45.33.121.111:10208</proxy>
<proxy>45.33.121.111:10209</proxy>
<proxy>45.33.121.111:10210</proxy>
<proxy>45.33.121.111:10211</proxy>
<proxy>45.33.121.111:10212</proxy>
<proxy>45.33.121.111:10213</proxy>
<proxy>45.33.121.111:10214</proxy>
<proxy>45.33.121.111:10215</proxy>
<proxy>45.33.121.111:10216</proxy>
<proxy>45.33.121.111:10217</proxy>
<proxy>45.33.121.111:10218</proxy>
<proxy>45.33.121.111:10219</proxy>
<proxy>45.33.121.111:10220</proxy>
<proxy>45.33.121.111:10221</proxy>
<proxy>45.33.121.111:10222</proxy>
<proxy>45.33.121.111:10223</proxy>
<proxy>45.33.121.111:10224</proxy>
<proxy>45.33.121.111:10225</proxy>
<proxy>45.33.121.111:10226</proxy>
<proxy>45.33.121.111:10227</proxy>
<proxy>45.33.121.111:10228</proxy>
<proxy>45.33.121.111:10229</proxy>
<proxy>45.33.121.111:10230</proxy>
<proxy>45.33.121.111:10231</proxy>
<proxy>45.33.121.111:10232</proxy>
<proxy>45.33.121.111:10233</proxy>
<proxy>45.33.121.111:10234</proxy>
<proxy>45.33.121.111:10235</proxy>
<proxy>45.33.121.111:10236</proxy>
<proxy>45.33.121.111:10237</proxy>
<proxy>45.33.121.111:10238</proxy>
<proxy>45.33.121.111:10239</proxy>
<proxy>45.33.121.111:10240</proxy>
<proxy>45.33.121.111:10241</proxy>
<proxy>45.33.121.111:10242</proxy>
<proxy>45.33.121.111:10243</proxy>
<proxy>45.33.121.111:10244</proxy>
<proxy>45.33.121.111:10245</proxy>
<proxy>45.33.121.111:10246</proxy>
<proxy>45.33.121.111:10247</proxy>
<proxy>45.33.121.111:10248</proxy>
<proxy>45.33.121.111:10249</proxy>
<proxy>45.33.121.111:10250</proxy>
<proxy>45.33.121.111:10251</proxy>
<proxy>45.33.121.111:10252</proxy>
<proxy>45.33.121.111:10253</proxy>
<proxy>45.33.121.111:10254</proxy>
<proxy>45.33.121.111:10255</proxy>
<proxy>45.33.94.31:10001</proxy>
<proxy>45.33.94.31:10002</proxy>
<proxy>45.33.94.31:10003</proxy>
<proxy>45.33.94.31:10004</proxy>
<proxy>45.33.94.31:10005</proxy>
<proxy>45.33.94.31:10006</proxy>
<proxy>45.33.94.31:10007</proxy>
<proxy>45.33.94.31:10008</proxy>
<proxy>45.33.94.31:10009</proxy>
<proxy>45.33.94.31:10010</proxy>
<proxy>45.33.94.31:10011</proxy>
<proxy>45.33.94.31:10012</proxy>
<proxy>45.33.94.31:10013</proxy>
<proxy>45.33.94.31:10014</proxy>
<proxy>45.33.94.31:10015</proxy>
<proxy>45.33.94.31:10016</proxy>
<proxy>45.33.94.31:10017</proxy>
<proxy>45.33.94.31:10018</proxy>
<proxy>45.33.94.31:10019</proxy>
<proxy>45.33.94.31:10020</proxy>
<proxy>45.33.94.31:10021</proxy>
<proxy>45.33.94.31:10022</proxy>
<proxy>45.33.94.31:10023</proxy>
<proxy>45.33.94.31:10024</proxy>
<proxy>45.33.94.31:10025</proxy>
<proxy>45.33.94.31:10026</proxy>
<proxy>45.33.94.31:10027</proxy>
<proxy>45.33.94.31:10028</proxy>
<proxy>45.33.94.31:10029</proxy>
<proxy>45.33.94.31:10030</proxy>
<proxy>45.33.94.31:10031</proxy>
<proxy>45.33.94.31:10032</proxy>
<proxy>45.33.94.31:10033</proxy>
<proxy>45.33.94.31:10034</proxy>
<proxy>45.33.94.31:10035</proxy>
<proxy>45.33.94.31:10036</proxy>
<proxy>45.33.94.31:10037</proxy>
<proxy>45.33.94.31:10038</proxy>
<proxy>45.33.94.31:10039</proxy>
<proxy>45.33.94.31:10040</proxy>
<proxy>45.33.94.31:10041</proxy>
<proxy>45.33.94.31:10042</proxy>
<proxy>45.33.94.31:10043</proxy>
<proxy>45.33.94.31:10044</proxy>
<proxy>45.33.94.31:10045</proxy>
<proxy>45.33.94.31:10046</proxy>
<proxy>45.33.94.31:10047</proxy>
<proxy>45.33.94.31:10048</proxy>
<proxy>45.33.94.31:10049</proxy>
<proxy>45.33.94.31:10050</proxy>
<proxy>45.33.94.31:10051</proxy>
<proxy>45.33.94.31:10052</proxy>
<proxy>45.33.94.31:10053</proxy>
<proxy>45.33.94.31:10054</proxy>
<proxy>45.33.94.31:10055</proxy>
<proxy>45.33.94.31:10056</proxy>
<proxy>45.33.94.31:10057</proxy>
<proxy>45.33.94.31:10058</proxy>
<proxy>45.33.94.31:10059</proxy>
<proxy>45.33.94.31:10060</proxy>
<proxy>45.33.94.31:10061</proxy>
<proxy>45.33.94.31:10062</proxy>
<proxy>45.33.94.31:10063</proxy>
<proxy>45.33.94.31:10064</proxy>
<proxy>45.33.94.31:10065</proxy>
<proxy>45.33.94.31:10066</proxy>
<proxy>45.33.94.31:10067</proxy>
<proxy>45.33.94.31:10068</proxy>
<proxy>45.33.94.31:10069</proxy>
<proxy>45.33.94.31:10070</proxy>
<proxy>45.33.94.31:10071</proxy>
<proxy>45.33.94.31:10072</proxy>
<proxy>45.33.94.31:10073</proxy>
<proxy>45.33.94.31:10074</proxy>
<proxy>45.33.94.31:10075</proxy>
<proxy>45.33.94.31:10076</proxy>
<proxy>45.33.94.31:10077</proxy>
<proxy>45.33.94.31:10078</proxy>
<proxy>45.33.94.31:10079</proxy>
<proxy>45.33.94.31:10080</proxy>
<proxy>45.33.94.31:10081</proxy>
<proxy>45.33.94.31:10082</proxy>
<proxy>45.33.94.31:10083</proxy>
<proxy>45.33.94.31:10084</proxy>
<proxy>45.33.94.31:10085</proxy>
<proxy>45.33.94.31:10086</proxy>
<proxy>45.33.94.31:10087</proxy>
<proxy>45.33.94.31:10088</proxy>
<proxy>45.33.94.31:10089</proxy>
<proxy>45.33.94.31:10090</proxy>
<proxy>45.33.94.31:10091</proxy>
<proxy>45.33.94.31:10092</proxy>
<proxy>45.33.94.31:10093</proxy>
<proxy>45.33.94.31:10094</proxy>
<proxy>45.33.94.31:10095</proxy>
<proxy>45.33.94.31:10096</proxy>
<proxy>45.33.94.31:10097</proxy>
<proxy>45.33.94.31:10098</proxy>
<proxy>45.33.94.31:10099</proxy>
<proxy>45.33.94.31:10100</proxy>
<proxy>45.33.94.31:10101</proxy>
<proxy>45.33.94.31:10102</proxy>
<proxy>45.33.94.31:10103</proxy>
<proxy>45.33.94.31:10104</proxy>
<proxy>45.33.94.31:10105</proxy>
<proxy>45.33.94.31:10106</proxy>
<proxy>45.33.94.31:10107</proxy>
<proxy>45.33.94.31:10108</proxy>
<proxy>45.33.94.31:10109</proxy>
<proxy>45.33.94.31:10110</proxy>
<proxy>45.33.94.31:10111</proxy>
<proxy>45.33.94.31:10112</proxy>
<proxy>45.33.94.31:10113</proxy>
<proxy>45.33.94.31:10114</proxy>
<proxy>45.33.94.31:10115</proxy>
<proxy>45.33.94.31:10116</proxy>
<proxy>45.33.94.31:10117</proxy>
<proxy>45.33.94.31:10118</proxy>
<proxy>45.33.94.31:10119</proxy>
<proxy>45.33.94.31:10120</proxy>
<proxy>45.33.94.31:10121</proxy>
<proxy>45.33.94.31:10122</proxy>
<proxy>45.33.94.31:10123</proxy>
<proxy>45.33.94.31:10124</proxy>
<proxy>45.33.94.31:10125</proxy>
<proxy>45.33.94.31:10126</proxy>
<proxy>45.33.94.31:10127</proxy>
<proxy>45.33.94.31:10128</proxy>
<proxy>45.33.94.31:10129</proxy>
<proxy>45.33.94.31:10130</proxy>
<proxy>45.33.94.31:10131</proxy>
<proxy>45.33.94.31:10132</proxy>
<proxy>45.33.94.31:10133</proxy>
<proxy>45.33.94.31:10134</proxy>
<proxy>45.33.94.31:10135</proxy>
<proxy>45.33.94.31:10136</proxy>
<proxy>45.33.94.31:10137</proxy>
<proxy>45.33.94.31:10138</proxy>
<proxy>45.33.94.31:10139</proxy>
<proxy>45.33.94.31:10140</proxy>
<proxy>45.33.94.31:10141</proxy>
<proxy>45.33.94.31:10142</proxy>
<proxy>45.33.94.31:10143</proxy>
<proxy>45.33.94.31:10144</proxy>
<proxy>45.33.94.31:10145</proxy>
<proxy>45.33.94.31:10146</proxy>
<proxy>45.33.94.31:10147</proxy>
<proxy>45.33.94.31:10148</proxy>
<proxy>45.33.94.31:10149</proxy>
<proxy>45.33.94.31:10150</proxy>
<proxy>45.33.94.31:10151</proxy>
<proxy>45.33.94.31:10152</proxy>
<proxy>45.33.94.31:10153</proxy>
<proxy>45.33.94.31:10154</proxy>
<proxy>45.33.94.31:10155</proxy>
<proxy>45.33.94.31:10156</proxy>
<proxy>45.33.94.31:10157</proxy>
<proxy>45.33.94.31:10158</proxy>
<proxy>45.33.94.31:10159</proxy>
<proxy>45.33.94.31:10160</proxy>
<proxy>45.33.94.31:10161</proxy>
<proxy>45.33.94.31:10162</proxy>
<proxy>45.33.94.31:10163</proxy>
<proxy>45.33.94.31:10164</proxy>
<proxy>45.33.94.31:10165</proxy>
<proxy>45.33.94.31:10166</proxy>
<proxy>45.33.94.31:10167</proxy>
<proxy>45.33.94.31:10168</proxy>
<proxy>45.33.94.31:10169</proxy>
<proxy>45.33.94.31:10170</proxy>
<proxy>45.33.94.31:10171</proxy>
<proxy>45.33.94.31:10172</proxy>
<proxy>45.33.94.31:10173</proxy>
<proxy>45.33.94.31:10174</proxy>
<proxy>45.33.94.31:10175</proxy>
<proxy>45.33.94.31:10176</proxy>
<proxy>45.33.94.31:10177</proxy>
<proxy>45.33.94.31:10178</proxy>
<proxy>45.33.94.31:10179</proxy>
<proxy>45.33.94.31:10180</proxy>
<proxy>45.33.94.31:10181</proxy>
<proxy>45.33.94.31:10182</proxy>
<proxy>45.33.94.31:10183</proxy>
<proxy>45.33.94.31:10184</proxy>
<proxy>45.33.94.31:10185</proxy>
<proxy>45.33.94.31:10186</proxy>
<proxy>45.33.94.31:10187</proxy>
<proxy>45.33.94.31:10188</proxy>
<proxy>45.33.94.31:10189</proxy>
<proxy>45.33.94.31:10190</proxy>
<proxy>45.33.94.31:10191</proxy>
<proxy>45.33.94.31:10192</proxy>
<proxy>45.33.94.31:10193</proxy>
<proxy>45.33.94.31:10194</proxy>
<proxy>45.33.94.31:10195</proxy>
<proxy>45.33.94.31:10196</proxy>
<proxy>45.33.94.31:10197</proxy>
<proxy>45.33.94.31:10198</proxy>
<proxy>45.33.94.31:10199</proxy>
<proxy>45.33.94.31:10200</proxy>
<proxy>45.33.94.31:10201</proxy>
<proxy>45.33.94.31:10202</proxy>
<proxy>45.33.94.31:10203</proxy>
<proxy>45.33.94.31:10204</proxy>
<proxy>45.33.94.31:10205</proxy>
<proxy>45.33.94.31:10206</proxy>
<proxy>45.33.94.31:10207</proxy>
<proxy>45.33.94.31:10208</proxy>
<proxy>45.33.94.31:10209</proxy>
<proxy>45.33.94.31:10210</proxy>
<proxy>45.33.94.31:10211</proxy>
<proxy>45.33.94.31:10212</proxy>
<proxy>45.33.94.31:10213</proxy>
<proxy>45.33.94.31:10214</proxy>
<proxy>45.33.94.31:10215</proxy>
<proxy>45.33.94.31:10216</proxy>
<proxy>45.33.94.31:10217</proxy>
<proxy>45.33.94.31:10218</proxy>
<proxy>45.33.94.31:10219</proxy>
<proxy>45.33.94.31:10220</proxy>
<proxy>45.33.94.31:10221</proxy>
<proxy>45.33.94.31:10222</proxy>
<proxy>45.33.94.31:10223</proxy>
<proxy>45.33.94.31:10224</proxy>
<proxy>45.33.94.31:10225</proxy>
<proxy>45.33.94.31:10226</proxy>
<proxy>45.33.94.31:10227</proxy>
<proxy>45.33.94.31:10228</proxy>
<proxy>45.33.94.31:10229</proxy>
<proxy>45.33.94.31:10230</proxy>
<proxy>45.33.94.31:10231</proxy>
<proxy>45.33.94.31:10232</proxy>
<proxy>45.33.94.31:10233</proxy>
<proxy>45.33.94.31:10234</proxy>
<proxy>45.33.94.31:10235</proxy>
<proxy>45.33.94.31:10236</proxy>
<proxy>45.33.94.31:10237</proxy>
<proxy>45.33.94.31:10238</proxy>
<proxy>45.33.94.31:10239</proxy>
<proxy>45.33.94.31:10240</proxy>
<proxy>45.33.94.31:10241</proxy>
<proxy>45.33.94.31:10242</proxy>
<proxy>45.33.94.31:10243</proxy>
<proxy>45.33.94.31:10244</proxy>
<proxy>45.33.94.31:10245</proxy>
<proxy>45.33.94.31:10246</proxy>
<proxy>45.33.94.31:10247</proxy>
<proxy>45.33.94.31:10248</proxy>
<proxy>45.33.94.31:10249</proxy>
<proxy>45.33.94.31:10250</proxy>
<proxy>45.33.94.31:10251</proxy>
<proxy>45.33.94.31:10252</proxy>
<proxy>45.33.94.31:10253</proxy>
<proxy>45.33.94.31:10254</proxy>
<proxy>45.33.94.31:10255</proxy>
<proxy>45.33.64.222:10001</proxy>
<proxy>45.33.64.222:10002</proxy>
<proxy>45.33.64.222:10003</proxy>
<proxy>45.33.64.222:10004</proxy>
<proxy>45.33.64.222:10005</proxy>
<proxy>45.33.64.222:10006</proxy>
<proxy>45.33.64.222:10007</proxy>
<proxy>45.33.64.222:10008</proxy>
<proxy>45.33.64.222:10009</proxy>
<proxy>45.33.64.222:10010</proxy>
<proxy>45.33.64.222:10011</proxy>
<proxy>45.33.64.222:10012</proxy>
<proxy>45.33.64.222:10013</proxy>
<proxy>45.33.64.222:10014</proxy>
<proxy>45.33.64.222:10015</proxy>
<proxy>45.33.64.222:10016</proxy>
<proxy>45.33.64.222:10017</proxy>
<proxy>45.33.64.222:10018</proxy>
<proxy>45.33.64.222:10019</proxy>
<proxy>45.33.64.222:10020</proxy>
<proxy>45.33.64.222:10021</proxy>
<proxy>45.33.64.222:10022</proxy>
<proxy>45.33.64.222:10023</proxy>
<proxy>45.33.64.222:10024</proxy>
<proxy>45.33.64.222:10025</proxy>
<proxy>45.33.64.222:10026</proxy>
<proxy>45.33.64.222:10027</proxy>
<proxy>45.33.64.222:10028</proxy>
<proxy>45.33.64.222:10029</proxy>
<proxy>45.33.64.222:10030</proxy>
<proxy>45.33.64.222:10031</proxy>
<proxy>45.33.64.222:10032</proxy>
<proxy>45.33.64.222:10033</proxy>
<proxy>45.33.64.222:10034</proxy>
<proxy>45.33.64.222:10035</proxy>
<proxy>45.33.64.222:10036</proxy>
<proxy>45.33.64.222:10037</proxy>
<proxy>45.33.64.222:10038</proxy>
<proxy>45.33.64.222:10039</proxy>
<proxy>45.33.64.222:10040</proxy>
<proxy>45.33.64.222:10041</proxy>
<proxy>45.33.64.222:10042</proxy>
<proxy>45.33.64.222:10043</proxy>
<proxy>45.33.64.222:10044</proxy>
<proxy>45.33.64.222:10045</proxy>
<proxy>45.33.64.222:10046</proxy>
<proxy>45.33.64.222:10047</proxy>
<proxy>45.33.64.222:10048</proxy>
<proxy>45.33.64.222:10049</proxy>
<proxy>45.33.64.222:10050</proxy>
<proxy>45.33.64.222:10051</proxy>
<proxy>45.33.64.222:10052</proxy>
<proxy>45.33.64.222:10053</proxy>
<proxy>45.33.64.222:10054</proxy>
<proxy>45.33.64.222:10055</proxy>
<proxy>45.33.64.222:10056</proxy>
<proxy>45.33.64.222:10057</proxy>
<proxy>45.33.64.222:10058</proxy>
<proxy>45.33.64.222:10059</proxy>
<proxy>45.33.64.222:10060</proxy>
<proxy>45.33.64.222:10061</proxy>
<proxy>45.33.64.222:10062</proxy>
<proxy>45.33.64.222:10063</proxy>
<proxy>45.33.64.222:10064</proxy>
<proxy>45.33.64.222:10065</proxy>
<proxy>45.33.64.222:10066</proxy>
<proxy>45.33.64.222:10067</proxy>
<proxy>45.33.64.222:10068</proxy>
<proxy>45.33.64.222:10069</proxy>
<proxy>45.33.64.222:10070</proxy>
<proxy>45.33.64.222:10071</proxy>
<proxy>45.33.64.222:10072</proxy>
<proxy>45.33.64.222:10073</proxy>
<proxy>45.33.64.222:10074</proxy>
<proxy>45.33.64.222:10075</proxy>
<proxy>45.33.64.222:10076</proxy>
<proxy>45.33.64.222:10077</proxy>
<proxy>45.33.64.222:10078</proxy>
<proxy>45.33.64.222:10079</proxy>
<proxy>45.33.64.222:10080</proxy>
<proxy>45.33.64.222:10081</proxy>
<proxy>45.33.64.222:10082</proxy>
<proxy>45.33.64.222:10083</proxy>
<proxy>45.33.64.222:10084</proxy>
<proxy>45.33.64.222:10085</proxy>
<proxy>45.33.64.222:10086</proxy>
<proxy>45.33.64.222:10087</proxy>
<proxy>45.33.64.222:10088</proxy>
<proxy>45.33.64.222:10089</proxy>
<proxy>45.33.64.222:10090</proxy>
<proxy>45.33.64.222:10091</proxy>
<proxy>45.33.64.222:10092</proxy>
<proxy>45.33.64.222:10093</proxy>
<proxy>45.33.64.222:10094</proxy>
<proxy>45.33.64.222:10095</proxy>
<proxy>45.33.64.222:10096</proxy>
<proxy>45.33.64.222:10097</proxy>
<proxy>45.33.64.222:10098</proxy>
<proxy>45.33.64.222:10099</proxy>
<proxy>45.33.64.222:10100</proxy>
<proxy>45.33.64.222:10101</proxy>
<proxy>45.33.64.222:10102</proxy>
<proxy>45.33.64.222:10103</proxy>
<proxy>45.33.64.222:10104</proxy>
<proxy>45.33.64.222:10105</proxy>
<proxy>45.33.64.222:10106</proxy>
<proxy>45.33.64.222:10107</proxy>
<proxy>45.33.64.222:10108</proxy>
<proxy>45.33.64.222:10109</proxy>
<proxy>45.33.64.222:10110</proxy>
<proxy>45.33.64.222:10111</proxy>
<proxy>45.33.64.222:10112</proxy>
<proxy>45.33.64.222:10113</proxy>
<proxy>45.33.64.222:10114</proxy>
<proxy>45.33.64.222:10115</proxy>
<proxy>45.33.64.222:10116</proxy>
<proxy>45.33.64.222:10117</proxy>
<proxy>45.33.64.222:10118</proxy>
<proxy>45.33.64.222:10119</proxy>
<proxy>45.33.64.222:10120</proxy>
<proxy>45.33.64.222:10121</proxy>
<proxy>45.33.64.222:10122</proxy>
<proxy>45.33.64.222:10123</proxy>
<proxy>45.33.64.222:10124</proxy>
<proxy>45.33.64.222:10125</proxy>
<proxy>45.33.64.222:10126</proxy>
<proxy>45.33.64.222:10127</proxy>
<proxy>45.33.64.222:10128</proxy>
<proxy>45.33.64.222:10129</proxy>
<proxy>45.33.64.222:10130</proxy>
<proxy>45.33.64.222:10131</proxy>
<proxy>45.33.64.222:10132</proxy>
<proxy>45.33.64.222:10133</proxy>
<proxy>45.33.64.222:10134</proxy>
<proxy>45.33.64.222:10135</proxy>
<proxy>45.33.64.222:10136</proxy>
<proxy>45.33.64.222:10137</proxy>
<proxy>45.33.64.222:10138</proxy>
<proxy>45.33.64.222:10139</proxy>
<proxy>45.33.64.222:10140</proxy>
<proxy>45.33.64.222:10141</proxy>
<proxy>45.33.64.222:10142</proxy>
<proxy>45.33.64.222:10143</proxy>
<proxy>45.33.64.222:10144</proxy>
<proxy>45.33.64.222:10145</proxy>
<proxy>45.33.64.222:10146</proxy>
<proxy>45.33.64.222:10147</proxy>
<proxy>45.33.64.222:10148</proxy>
<proxy>45.33.64.222:10149</proxy>
<proxy>45.33.64.222:10150</proxy>
<proxy>45.33.64.222:10151</proxy>
<proxy>45.33.64.222:10152</proxy>
<proxy>45.33.64.222:10153</proxy>
<proxy>45.33.64.222:10154</proxy>
<proxy>45.33.64.222:10155</proxy>
<proxy>45.33.64.222:10156</proxy>
<proxy>45.33.64.222:10157</proxy>
<proxy>45.33.64.222:10158</proxy>
<proxy>45.33.64.222:10159</proxy>
<proxy>45.33.64.222:10160</proxy>
<proxy>45.33.64.222:10161</proxy>
<proxy>45.33.64.222:10162</proxy>
<proxy>45.33.64.222:10163</proxy>
<proxy>45.33.64.222:10164</proxy>
<proxy>45.33.64.222:10165</proxy>
<proxy>45.33.64.222:10166</proxy>
<proxy>45.33.64.222:10167</proxy>
<proxy>45.33.64.222:10168</proxy>
<proxy>45.33.64.222:10169</proxy>
<proxy>45.33.64.222:10170</proxy>
<proxy>45.33.64.222:10171</proxy>
<proxy>45.33.64.222:10172</proxy>
<proxy>45.33.64.222:10173</proxy>
<proxy>45.33.64.222:10174</proxy>
<proxy>45.33.64.222:10175</proxy>
<proxy>45.33.64.222:10176</proxy>
<proxy>45.33.64.222:10177</proxy>
<proxy>45.33.64.222:10178</proxy>
<proxy>45.33.64.222:10179</proxy>
<proxy>45.33.64.222:10180</proxy>
<proxy>45.33.64.222:10181</proxy>
<proxy>45.33.64.222:10182</proxy>
<proxy>45.33.64.222:10183</proxy>
<proxy>45.33.64.222:10184</proxy>
<proxy>45.33.64.222:10185</proxy>
<proxy>45.33.64.222:10186</proxy>
<proxy>45.33.64.222:10187</proxy>
<proxy>45.33.64.222:10188</proxy>
<proxy>45.33.64.222:10189</proxy>
<proxy>45.33.64.222:10190</proxy>
<proxy>45.33.64.222:10191</proxy>
<proxy>45.33.64.222:10192</proxy>
<proxy>45.33.64.222:10193</proxy>
<proxy>45.33.64.222:10194</proxy>
<proxy>45.33.64.222:10195</proxy>
<proxy>45.33.64.222:10196</proxy>
<proxy>45.33.64.222:10197</proxy>
<proxy>45.33.64.222:10198</proxy>
<proxy>45.33.64.222:10199</proxy>
<proxy>45.33.64.222:10200</proxy>
<proxy>45.33.64.222:10201</proxy>
<proxy>45.33.64.222:10202</proxy>
<proxy>45.33.64.222:10203</proxy>
<proxy>45.33.64.222:10204</proxy>
<proxy>45.33.64.222:10205</proxy>
<proxy>45.33.64.222:10206</proxy>
<proxy>45.33.64.222:10207</proxy>
<proxy>45.33.64.222:10208</proxy>
<proxy>45.33.64.222:10209</proxy>
<proxy>45.33.64.222:10210</proxy>
<proxy>45.33.64.222:10211</proxy>
<proxy>45.33.64.222:10212</proxy>
<proxy>45.33.64.222:10213</proxy>
<proxy>45.33.64.222:10214</proxy>
<proxy>45.33.64.222:10215</proxy>
<proxy>45.33.64.222:10216</proxy>
<proxy>45.33.64.222:10217</proxy>
<proxy>45.33.64.222:10218</proxy>
<proxy>45.33.64.222:10219</proxy>
<proxy>45.33.64.222:10220</proxy>
<proxy>45.33.64.222:10221</proxy>
<proxy>45.33.64.222:10222</proxy>
<proxy>45.33.64.222:10223</proxy>
<proxy>45.33.64.222:10224</proxy>
<proxy>45.33.64.222:10225</proxy>
<proxy>45.33.64.222:10226</proxy>
<proxy>45.33.64.222:10227</proxy>
<proxy>45.33.64.222:10228</proxy>
<proxy>45.33.64.222:10229</proxy>
<proxy>45.33.64.222:10230</proxy>
<proxy>45.33.64.222:10231</proxy>
<proxy>45.33.64.222:10232</proxy>
<proxy>45.33.64.222:10233</proxy>
<proxy>45.33.64.222:10234</proxy>
<proxy>45.33.64.222:10235</proxy>
<proxy>45.33.64.222:10236</proxy>
<proxy>45.33.64.222:10237</proxy>
<proxy>45.33.64.222:10238</proxy>
<proxy>45.33.64.222:10239</proxy>
<proxy>45.33.64.222:10240</proxy>
<proxy>45.33.64.222:10241</proxy>
<proxy>45.33.64.222:10242</proxy>
<proxy>45.33.64.222:10243</proxy>
<proxy>45.33.64.222:10244</proxy>
<proxy>45.33.64.222:10245</proxy>
<proxy>45.33.64.222:10246</proxy>
<proxy>45.33.64.222:10247</proxy>
<proxy>45.33.64.222:10248</proxy>
<proxy>45.33.64.222:10249</proxy>
<proxy>45.33.64.222:10250</proxy>
<proxy>45.33.64.222:10251</proxy>
<proxy>45.33.64.222:10252</proxy>
<proxy>45.33.64.222:10253</proxy>
<proxy>45.33.64.222:10254</proxy>
<proxy>45.33.64.222:10255</proxy>
<proxy>45.33.91.20:10001</proxy>
<proxy>45.33.91.20:10002</proxy>
<proxy>45.33.91.20:10003</proxy>
<proxy>45.33.91.20:10004</proxy>
<proxy>45.33.91.20:10005</proxy>
<proxy>45.33.91.20:10006</proxy>
<proxy>45.33.91.20:10007</proxy>
<proxy>45.33.91.20:10008</proxy>
<proxy>45.33.91.20:10009</proxy>
<proxy>45.33.91.20:10010</proxy>
<proxy>45.33.91.20:10011</proxy>
<proxy>45.33.91.20:10012</proxy>
<proxy>45.33.91.20:10013</proxy>
<proxy>45.33.91.20:10014</proxy>
<proxy>45.33.91.20:10015</proxy>
<proxy>45.33.91.20:10016</proxy>
<proxy>45.33.91.20:10017</proxy>
<proxy>45.33.91.20:10018</proxy>
<proxy>45.33.91.20:10019</proxy>
<proxy>45.33.91.20:10020</proxy>
<proxy>45.33.91.20:10021</proxy>
<proxy>45.33.91.20:10022</proxy>
<proxy>45.33.91.20:10023</proxy>
<proxy>45.33.91.20:10024</proxy>
<proxy>45.33.91.20:10025</proxy>
<proxy>45.33.91.20:10026</proxy>
<proxy>45.33.91.20:10027</proxy>
<proxy>45.33.91.20:10028</proxy>
<proxy>45.33.91.20:10029</proxy>
<proxy>45.33.91.20:10030</proxy>
<proxy>45.33.91.20:10031</proxy>
<proxy>45.33.91.20:10032</proxy>
<proxy>45.33.91.20:10033</proxy>
<proxy>45.33.91.20:10034</proxy>
<proxy>45.33.91.20:10035</proxy>
<proxy>45.33.91.20:10036</proxy>
<proxy>45.33.91.20:10037</proxy>
<proxy>45.33.91.20:10038</proxy>
<proxy>45.33.91.20:10039</proxy>
<proxy>45.33.91.20:10040</proxy>
<proxy>45.33.91.20:10041</proxy>
<proxy>45.33.91.20:10042</proxy>
<proxy>45.33.91.20:10043</proxy>
<proxy>45.33.91.20:10044</proxy>
<proxy>45.33.91.20:10045</proxy>
<proxy>45.33.91.20:10046</proxy>
<proxy>45.33.91.20:10047</proxy>
<proxy>45.33.91.20:10048</proxy>
<proxy>45.33.91.20:10049</proxy>
<proxy>45.33.91.20:10050</proxy>
<proxy>45.33.91.20:10051</proxy>
<proxy>45.33.91.20:10052</proxy>
<proxy>45.33.91.20:10053</proxy>
<proxy>45.33.91.20:10054</proxy>
<proxy>45.33.91.20:10055</proxy>
<proxy>45.33.91.20:10056</proxy>
<proxy>45.33.91.20:10057</proxy>
<proxy>45.33.91.20:10058</proxy>
<proxy>45.33.91.20:10059</proxy>
<proxy>45.33.91.20:10060</proxy>
<proxy>45.33.91.20:10061</proxy>
<proxy>45.33.91.20:10062</proxy>
<proxy>45.33.91.20:10063</proxy>
<proxy>45.33.91.20:10064</proxy>
<proxy>45.33.91.20:10065</proxy>
<proxy>45.33.91.20:10066</proxy>
<proxy>45.33.91.20:10067</proxy>
<proxy>45.33.91.20:10068</proxy>
<proxy>45.33.91.20:10069</proxy>
<proxy>45.33.91.20:10070</proxy>
<proxy>45.33.91.20:10071</proxy>
<proxy>45.33.91.20:10072</proxy>
<proxy>45.33.91.20:10073</proxy>
<proxy>45.33.91.20:10074</proxy>
<proxy>45.33.91.20:10075</proxy>
<proxy>45.33.91.20:10076</proxy>
<proxy>45.33.91.20:10077</proxy>
<proxy>45.33.91.20:10078</proxy>
<proxy>45.33.91.20:10079</proxy>
<proxy>45.33.91.20:10080</proxy>
<proxy>45.33.91.20:10081</proxy>
<proxy>45.33.91.20:10082</proxy>
<proxy>45.33.91.20:10083</proxy>
<proxy>45.33.91.20:10084</proxy>
<proxy>45.33.91.20:10085</proxy>
<proxy>45.33.91.20:10086</proxy>
<proxy>45.33.91.20:10087</proxy>
<proxy>45.33.91.20:10088</proxy>
<proxy>45.33.91.20:10089</proxy>
<proxy>45.33.91.20:10090</proxy>
<proxy>45.33.91.20:10091</proxy>
<proxy>45.33.91.20:10092</proxy>
<proxy>45.33.91.20:10093</proxy>
<proxy>45.33.91.20:10094</proxy>
<proxy>45.33.91.20:10095</proxy>
<proxy>45.33.91.20:10096</proxy>
<proxy>45.33.91.20:10097</proxy>
<proxy>45.33.91.20:10098</proxy>
<proxy>45.33.91.20:10099</proxy>
<proxy>45.33.91.20:10100</proxy>
<proxy>45.33.91.20:10101</proxy>
<proxy>45.33.91.20:10102</proxy>
<proxy>45.33.91.20:10103</proxy>
<proxy>45.33.91.20:10104</proxy>
<proxy>45.33.91.20:10105</proxy>
<proxy>45.33.91.20:10106</proxy>
<proxy>45.33.91.20:10107</proxy>
<proxy>45.33.91.20:10108</proxy>
<proxy>45.33.91.20:10109</proxy>
<proxy>45.33.91.20:10110</proxy>
<proxy>45.33.91.20:10111</proxy>
<proxy>45.33.91.20:10112</proxy>
<proxy>45.33.91.20:10113</proxy>
<proxy>45.33.91.20:10114</proxy>
<proxy>45.33.91.20:10115</proxy>
<proxy>45.33.91.20:10116</proxy>
<proxy>45.33.91.20:10117</proxy>
<proxy>45.33.91.20:10118</proxy>
<proxy>45.33.91.20:10119</proxy>
<proxy>45.33.91.20:10120</proxy>
<proxy>45.33.91.20:10121</proxy>
<proxy>45.33.91.20:10122</proxy>
<proxy>45.33.91.20:10123</proxy>
<proxy>45.33.91.20:10124</proxy>
<proxy>45.33.91.20:10125</proxy>